{
	"xsappname": "conciletime-02_qas",
	"tenant-mode": "shared",
	"description": "Business App that helps to (re)Concile Time.",
	"scopes": [
		{
			"name": "$XSAPPNAME.Callback",
			"description": "With this scope set, the callbacks for tenant onboarding, offboarding and getDependencies can be called.",
			"grant-as-authority-to-apps": [
				"$XSAPPNAME(application,sap-provisioning,tenant-onboarding)"
			]
		},
		{
			"name": "$XSAPPNAME.Display", 
			"description": "Display INA data"
		},
		{
			"name": "$XSAPPNAME.View", 
			"description": "View data"
		},
		{
			"name": "$XSAPPNAME.Create",
			"description": "Create data"
		},
		{
			"name": "$XSAPPNAME.Admin",
			"description": "ConcileTime Admin"
		},
		{
			"name": "$XSAPPNAME.TenantAdmin",
			"description": "ConcileTime Tenant Admin"
		}


	],
	"role-templates":[
		{
			"name": "ConcileTimeINA", 
			"description": "Role for displaying data via INA",
			"scope-references": [ 
				"$XSAPPNAME.Display" 
			]
		},
		{
			"name": "ConcileTimeAdmin", 
			"description": "Role for creating and viewing data",
			"scope-references": [ 
				"$XSAPPNAME.Admin",
				"$XSAPPNAME.Create",
				"$XSAPPNAME.View" 
			]
		},
		{
			"name": "ConcileTimeTenantAdmin", 
			"description": "Role for ConcileTime Tenant Administration",
			"scope-references": [ 
				"$XSAPPNAME.TenantAdmin",
				"$XSAPPNAME.Admin",
				"$XSAPPNAME.Create",
				"$XSAPPNAME.View" 
			]
		},
		{
			"name": "ConcileTimeCreator", 
			"description": "Role for ConcileTime Data Creation",
			"scope-references": [ 
				"$XSAPPNAME.Create",
				"$XSAPPNAME.View" 
			]
		},
		{
			"name": "ConcileTimeUser",
			"description": "Role for viewing data only",
			"scope-references":  [ 
				"$XSAPPNAME.View" 
			]
		}
	],
	"oauth2-configuration": {   
		"redirect-uris":
		[
			"http*://*.conciletime.com/**"
		]   
	}
}